…
``` r
dat_control %>%
  select(contains("isolated"))
```

    # A tibble: 243 × 2
       Q4.4.2.1.                                          W…¹ Any skull fracture(s…²
                                                        <dbl> <lgl>                 
     1                                                      1 FALSE                 
     2                                                      0 FALSE                 
     3                                                      0 FALSE                 
     4                                                      0 FALSE                 
     5                                                      0 FALSE                 
     6                                                      0 FALSE                 
     7                                                      1 FALSE                 
     8                                                      0 TRUE                  
     9                                                      0 FALSE                 
    10                                                      0 TRUE                  
    # ℹ 233 more rows
    # ℹ abbreviated names:
    #   ¹​`Q4.4.2.1.                                          What skull fracture(s) did the child manifest?                                    Only an isolated, unilateral, nondiastatic, linear, parietal skull fracture?`,
    #   ²​`Any skull fracture(s) other than an isolated, unilateral, nondiastatic, linear, parietal skull fracture?`
…
